%TF.GenerationSoftware,KiCad,Pcbnew,(6.0.10)*%
%TF.CreationDate,2023-01-20T09:16:26+09:00*%
%TF.ProjectId,AstropixTrigger,41737472-6f70-4697-9854-726967676572,rev?*%
%TF.SameCoordinates,Original*%
%TF.FileFunction,Profile,NP*%
%FSLAX46Y46*%
G04 Gerber Fmt 4.6, Leading zero omitted, Abs format (unit mm)*
G04 Created by KiCad (PCBNEW (6.0.10)) date 2023-01-20 09:16:26*
%MOMM*%
%LPD*%
G01*
G04 APERTURE LIST*
%TA.AperFunction,Profile*%
%ADD10C,0.100000*%
%TD*%
G04 APERTURE END LIST*
D10*
X117602000Y-80772000D02*
X118364000Y-79502000D01*
X113792000Y-79502000D02*
X114554000Y-80772000D01*
X118364000Y-79502000D02*
X138938000Y-79502000D01*
X109474000Y-62230000D02*
X109474000Y-79502000D01*
X114554000Y-60960000D02*
X113792000Y-62230000D01*
X117602000Y-60960000D02*
X114554000Y-60960000D01*
X109474000Y-79502000D02*
X113792000Y-79502000D01*
X118364000Y-62230000D02*
X138938000Y-62230000D01*
X138938000Y-79502000D02*
X140462000Y-77724000D01*
X113792000Y-62230000D02*
X109474000Y-62230000D01*
X118364000Y-62230000D02*
X117602000Y-60960000D01*
X140462000Y-77724000D02*
X140462000Y-64008000D01*
X138938000Y-62230000D02*
X140462000Y-64008000D01*
X114554000Y-80772000D02*
X117602000Y-80772000D01*
M02*
