%!PS-Adobe-3.0
%%Creator: PCBNEW
%%CreationDate: Fri Jan 20 09:16:29 2023
%%Title: ()
%%Pages: 1
%%PageOrder: Ascend
%%BoundingBox: 0 0 596 842
%%DocumentMedia: A4 595 842 0 () ()
%%Orientation: Landscape
%%EndComments
%%BeginProlog
/line { newpath moveto lineto stroke } bind def
/cir0 { newpath 0 360 arc stroke } bind def
/cir1 { newpath 0 360 arc gsave fill grestore stroke } bind def
/cir2 { newpath 0 360 arc gsave fill grestore stroke } bind def
/arc0 { newpath arc stroke } bind def
/arc1 { newpath 4 index 4 index moveto arc closepath gsave fill
    grestore stroke } bind def
/arc2 { newpath 4 index 4 index moveto arc closepath gsave fill
    grestore stroke } bind def
/poly0 { stroke } bind def
/poly1 { closepath gsave fill grestore stroke } bind def
/poly2 { closepath gsave fill grestore stroke } bind def
/rect0 { rectstroke } bind def
/rect1 { rectfill } bind def
/rect2 { rectfill } bind def
/linemode0 { 0 setlinecap 0 setlinejoin 0 setlinewidth } bind def
/linemode1 { 1 setlinecap 1 setlinejoin } bind def
/dashedline { [200] 100 setdash } bind def
/solidline { [] 0 setdash } bind def
/phantomshow { moveto
    /KicadFont findfont 0.000001 scalefont setfont
    show } bind def
/textshow { gsave
    findfont exch scalefont setfont concat 1 scale 0 0 moveto show
    } bind def
/reencodefont {
  findfont dup length dict begin
  { 1 index /FID ne
    { def }
    { pop pop } ifelse
  } forall
  /Encoding ISOLatin1Encoding def
  currentdict
  end } bind def
/KicadFont /Helvetica reencodefont definefont pop
/KicadFont-Bold /Helvetica-Bold reencodefont definefont pop
/KicadFont-Oblique /Helvetica-Oblique reencodefont definefont pop
/KicadFont-BoldOblique /Helvetica-BoldOblique reencodefont definefont pop
%%EndProlog
%%Page: 1 1
%%BeginPageSetup
gsave
0.0072 0.0072 scale
linemode1
82680 0 translate 90 rotate
236.22 setlinewidth
%%EndPageSetup
0 0 0 setrgbcolor
118.11 setlinewidth
newpath
49765 46176 moveto
50665 47676 lineto
stroke
0 0 0 setrgbcolor
newpath
45265 47676 moveto
46165 46176 lineto
stroke
0 0 0 setrgbcolor
newpath
50665 47676 moveto
74965 47676 lineto
stroke
0 0 0 setrgbcolor
newpath
40165 68076 moveto
40165 47676 lineto
stroke
0 0 0 setrgbcolor
newpath
46165 69576 moveto
45265 68076 lineto
stroke
0 0 0 setrgbcolor
newpath
49765 69576 moveto
46165 69576 lineto
stroke
0 0 0 setrgbcolor
newpath
40165 47676 moveto
45265 47676 lineto
stroke
0 0 0 setrgbcolor
newpath
50665 68076 moveto
74965 68076 lineto
stroke
0 0 0 setrgbcolor
newpath
74965 47676 moveto
76765 49776 lineto
stroke
0 0 0 setrgbcolor
newpath
45265 68076 moveto
40165 68076 lineto
stroke
0 0 0 setrgbcolor
newpath
50665 68076 moveto
49765 69576 lineto
stroke
0 0 0 setrgbcolor
newpath
76765 49776 moveto
76765 65976 lineto
stroke
0 0 0 setrgbcolor
newpath
74965 68076 moveto
76765 65976 lineto
stroke
0 0 0 setrgbcolor
newpath
46165 46176 moveto
49765 46176 lineto
stroke
236.22 setlinewidth
24 setlinewidth
newpath
44545 67146 moveto
44785 66906 lineto
stroke
newpath
44785 67146 moveto
44545 66906 lineto
stroke
newpath
44545 63996 moveto
44785 63756 lineto
stroke
newpath
44785 63996 moveto
44545 63756 lineto
stroke
newpath
44545 60996 moveto
44785 60756 lineto
stroke
newpath
44785 60996 moveto
44545 60756 lineto
stroke
newpath
44545 57396 moveto
44785 57156 lineto
stroke
newpath
44785 57396 moveto
44545 57156 lineto
stroke
newpath
44545 55596 moveto
44785 55356 lineto
stroke
newpath
44785 55596 moveto
44545 55356 lineto
stroke
newpath
44545 52296 moveto
44785 52056 lineto
stroke
newpath
44785 52296 moveto
44545 52056 lineto
stroke
newpath
44545 48846 moveto
44785 48606 lineto
stroke
newpath
44785 48846 moveto
44545 48606 lineto
stroke
newpath
46645 68646 moveto
46885 68406 lineto
stroke
newpath
46885 68646 moveto
46645 68406 lineto
stroke
newpath
46645 47346 moveto
46885 47106 lineto
stroke
newpath
46885 47346 moveto
46645 47106 lineto
stroke
newpath
47845 66096 moveto
48085 65856 lineto
stroke
newpath
48085 66096 moveto
47845 65856 lineto
stroke
newpath
47845 48996 moveto
48085 48756 lineto
stroke
newpath
48085 48996 moveto
47845 48756 lineto
stroke
newpath
48107.2 57365.3 moveto
48347.2 57125.3 lineto
stroke
newpath
48347.2 57365.3 moveto
48107.2 57125.3 lineto
stroke
newpath
48107.2 55593.6 moveto
48347.2 55353.6 lineto
stroke
newpath
48347.2 55593.6 moveto
48107.2 55353.6 lineto
stroke
newpath
49045 68646 moveto
49285 68406 lineto
stroke
newpath
49285 68646 moveto
49045 68406 lineto
stroke
newpath
49045 47346 moveto
49285 47106 lineto
stroke
newpath
49285 47346 moveto
49045 47106 lineto
stroke
newpath
49795 55896 moveto
50035 55656 lineto
stroke
newpath
50035 55896 moveto
49795 55656 lineto
stroke
newpath
49945 63996 moveto
50185 63756 lineto
stroke
newpath
50185 63996 moveto
49945 63756 lineto
stroke
newpath
49945 60096 moveto
50185 59856 lineto
stroke
newpath
50185 60096 moveto
49945 59856 lineto
stroke
newpath
49945 57846 moveto
50185 57606 lineto
stroke
newpath
50185 57846 moveto
49945 57606 lineto
stroke
newpath
51745 58296 moveto
51985 58056 lineto
stroke
newpath
51985 58296 moveto
51745 58056 lineto
stroke
newpath
52795 48996 moveto
53035 48756 lineto
stroke
newpath
53035 48996 moveto
52795 48756 lineto
stroke
newpath
53095 56796 moveto
53335 56556 lineto
stroke
newpath
53335 56796 moveto
53095 56556 lineto
stroke
newpath
53095 54996 moveto
53335 54756 lineto
stroke
newpath
53335 54996 moveto
53095 54756 lineto
stroke
newpath
53245 67146 moveto
53485 66906 lineto
stroke
newpath
53485 67146 moveto
53245 66906 lineto
stroke
newpath
53245 64446 moveto
53485 64206 lineto
stroke
newpath
53485 64446 moveto
53245 64206 lineto
stroke
newpath
53245 58896 moveto
53485 58656 lineto
stroke
newpath
53485 58896 moveto
53245 58656 lineto
stroke
newpath
55795 51696 moveto
56035 51456 lineto
stroke
newpath
56035 51696 moveto
55795 51456 lineto
stroke
newpath
56545 54246 moveto
56785 54006 lineto
stroke
newpath
56785 54246 moveto
56545 54006 lineto
stroke
newpath
57745 48996 moveto
57985 48756 lineto
stroke
newpath
57985 48996 moveto
57745 48756 lineto
stroke
newpath
58495 67146 moveto
58735 66906 lineto
stroke
newpath
58735 67146 moveto
58495 66906 lineto
stroke
newpath
58495 51696 moveto
58735 51456 lineto
stroke
newpath
58735 51696 moveto
58495 51456 lineto
stroke
newpath
58645 61896 moveto
58885 61656 lineto
stroke
newpath
58885 61896 moveto
58645 61656 lineto
stroke
newpath
58645 58896 moveto
58885 58656 lineto
stroke
newpath
58885 58896 moveto
58645 58656 lineto
stroke
newpath
58737.1 65042.5 moveto
58977.1 64802.5 lineto
stroke
newpath
58977.1 65042.5 moveto
58737.1 64802.5 lineto
stroke
newpath
59395 57246 moveto
59635 57006 lineto
stroke
newpath
59635 57246 moveto
59395 57006 lineto
stroke
newpath
61045 57846 moveto
61285 57606 lineto
stroke
newpath
61285 57846 moveto
61045 57606 lineto
stroke
newpath
61045 56046 moveto
61285 55806 lineto
stroke
newpath
61285 56046 moveto
61045 55806 lineto
stroke
newpath
61645 53046 moveto
61885 52806 lineto
stroke
newpath
61885 53046 moveto
61645 52806 lineto
stroke
newpath
61645 50646 moveto
61885 50406 lineto
stroke
newpath
61885 50646 moveto
61645 50406 lineto
stroke
newpath
62395 48996 moveto
62635 48756 lineto
stroke
newpath
62635 48996 moveto
62395 48756 lineto
stroke
newpath
63295 57846 moveto
63535 57606 lineto
stroke
newpath
63535 57846 moveto
63295 57606 lineto
stroke
newpath
63295 56046 moveto
63535 55806 lineto
stroke
newpath
63535 56046 moveto
63295 55806 lineto
stroke
newpath
64795 56646 moveto
65035 56406 lineto
stroke
newpath
65035 56646 moveto
64795 56406 lineto
stroke
newpath
64795 51996 moveto
65035 51756 lineto
stroke
newpath
65035 51996 moveto
64795 51756 lineto
stroke
newpath
65095 58446 moveto
65335 58206 lineto
stroke
newpath
65335 58446 moveto
65095 58206 lineto
stroke
newpath
65245 67146 moveto
65485 66906 lineto
stroke
newpath
65485 67146 moveto
65245 66906 lineto
stroke
newpath
65245 64296 moveto
65485 64056 lineto
stroke
newpath
65485 64296 moveto
65245 64056 lineto
stroke
newpath
66145 48996 moveto
66385 48756 lineto
stroke
newpath
66385 48996 moveto
66145 48756 lineto
stroke
newpath
67795 51996 moveto
68035 51756 lineto
stroke
newpath
68035 51996 moveto
67795 51756 lineto
stroke
newpath
68095 58446 moveto
68335 58206 lineto
stroke
newpath
68335 58446 moveto
68095 58206 lineto
stroke
newpath
68095 56646 moveto
68335 56406 lineto
stroke
newpath
68335 56646 moveto
68095 56406 lineto
stroke
newpath
69295 48996 moveto
69535 48756 lineto
stroke
newpath
69535 48996 moveto
69295 48756 lineto
stroke
newpath
69745 67146 moveto
69985 66906 lineto
stroke
newpath
69985 67146 moveto
69745 66906 lineto
stroke
newpath
70345 58446 moveto
70585 58206 lineto
stroke
newpath
70585 58446 moveto
70345 58206 lineto
stroke
newpath
70345 56646 moveto
70585 56406 lineto
stroke
newpath
70585 56646 moveto
70345 56406 lineto
stroke
newpath
71995 64596 moveto
72235 64356 lineto
stroke
newpath
72235 64596 moveto
71995 64356 lineto
stroke
newpath
71995 61296 moveto
72235 61056 lineto
stroke
newpath
72235 61296 moveto
71995 61056 lineto
stroke
newpath
71995 55446 moveto
72235 55206 lineto
stroke
newpath
72235 55446 moveto
71995 55206 lineto
stroke
newpath
71995 51996 moveto
72235 51756 lineto
stroke
newpath
72235 51996 moveto
71995 51756 lineto
stroke
newpath
73195 48996 moveto
73435 48756 lineto
stroke
newpath
73435 48996 moveto
73195 48756 lineto
stroke
newpath
74395 67146 moveto
74635 66906 lineto
stroke
newpath
74635 67146 moveto
74395 66906 lineto
stroke
newpath
75445 53646 moveto
75685 53406 lineto
stroke
newpath
75685 53646 moveto
75445 53406 lineto
stroke
newpath
75445 50196 moveto
75685 49956 lineto
stroke
newpath
75685 50196 moveto
75445 49956 lineto
stroke
newpath
75595 65646 moveto
75835 65406 lineto
stroke
newpath
75835 65646 moveto
75595 65406 lineto
stroke
newpath
75595 62946 moveto
75835 62706 lineto
stroke
newpath
75835 62946 moveto
75595 62706 lineto
stroke
newpath
75595 58446 moveto
75835 58206 lineto
stroke
newpath
75835 58446 moveto
75595 58206 lineto
stroke
114 setlinewidth
69070 61176 570 cir0
69070 55176 570 cir0
72070 58176 570 cir0
75070 61176 570 cir0
75070 55176 570 cir0
118.11 setlinewidth
newpath
41965 65966.6 moveto
41965 64785.4 lineto
stroke
newpath
41374.4 65376 moveto
42555.6 65376 lineto
stroke
newpath
41965 62966.6 moveto
41965 61785.4 lineto
stroke
newpath
41374.4 62376 moveto
42555.6 62376 lineto
stroke
newpath
41965 59966.6 moveto
41965 58785.4 lineto
stroke
newpath
41374.4 59376 moveto
42555.6 59376 lineto
stroke
newpath
41965 56966.6 moveto
41965 55785.4 lineto
stroke
newpath
41374.4 56376 moveto
42555.6 56376 lineto
stroke
newpath
41965 53966.6 moveto
41965 52785.4 lineto
stroke
newpath
41374.4 53376 moveto
42555.6 53376 lineto
stroke
newpath
41965 50966.6 moveto
41965 49785.4 lineto
stroke
newpath
41374.4 50376 moveto
42555.6 50376 lineto
stroke
236.22 setlinewidth
78.7406 setlinewidth
0 0 0 setrgbcolor
0 0 0 setrgbcolor
newpath
41120.2 44894.6 moveto
41120.2 45682 lineto
41307.7 45682 lineto
41420.2 45644.5 lineto
41495.1 45569.5 lineto
41532.6 45494.5 lineto
41570.1 45344.5 lineto
41570.1 45232.1 lineto
41532.6 45082.1 lineto
41495.1 45007.1 lineto
41420.2 44932.1 lineto
41307.7 44894.6 lineto
41120.2 44894.6 lineto
stroke
newpath
41907.6 44894.6 moveto
41907.6 45419.5 lineto
stroke
newpath
41907.6 45269.6 moveto
41945.1 45344.5 lineto
41982.6 45382 lineto
42057.6 45419.5 lineto
42132.6 45419.5 lineto
stroke
newpath
42395 44894.6 moveto
42395 45419.5 lineto
stroke
newpath
42395 45682 moveto
42357.5 45644.5 lineto
42395 45607 lineto
42432.5 45644.5 lineto
42395 45682 lineto
42395 45607 lineto
stroke
newpath
42882.5 44894.6 moveto
42807.5 44932.1 lineto
42770 45007.1 lineto
42770 45682 lineto
stroke
newpath
43294.9 44894.6 moveto
43219.9 44932.1 lineto
43182.4 45007.1 lineto
43182.4 45682 lineto
stroke
newpath
44194.8 44894.6 moveto
44194.8 45682 lineto
44457.3 45119.6 lineto
44719.7 45682 lineto
44719.7 44894.6 lineto
stroke
newpath
45432.2 44894.6 moveto
45432.2 45307 lineto
45394.7 45382 lineto
45319.7 45419.5 lineto
45169.7 45419.5 lineto
45094.7 45382 lineto
stroke
newpath
45432.2 44932.1 moveto
45357.2 44894.6 lineto
45169.7 44894.6 lineto
45094.7 44932.1 lineto
45057.2 45007.1 lineto
45057.2 45082.1 lineto
45094.7 45157.1 lineto
45169.7 45194.6 lineto
45357.2 45194.6 lineto
45432.2 45232.1 lineto
stroke
newpath
45807.1 45419.5 moveto
45807.1 44632.1 lineto
stroke
newpath
45807.1 45382 moveto
45882.1 45419.5 lineto
46032.1 45419.5 lineto
46107.1 45382 lineto
46144.6 45344.5 lineto
46182.1 45269.6 lineto
46182.1 45044.6 lineto
46144.6 44969.6 lineto
46107.1 44932.1 lineto
46032.1 44894.6 lineto
45882.1 44894.6 lineto
45807.1 44932.1 lineto
stroke
newpath
46519.5 44969.6 moveto
46557 44932.1 lineto
46519.5 44894.6 lineto
46482 44932.1 lineto
46519.5 44969.6 lineto
46519.5 44894.6 lineto
stroke
newpath
46519.5 45382 moveto
46557 45344.5 lineto
46519.5 45307 lineto
46482 45344.5 lineto
46519.5 45382 lineto
46519.5 45307 lineto
stroke
24 setlinewidth
newpath
39865.9 43717.3 moveto
40105.9 43477.3 lineto
stroke
newpath
40105.9 43717.3 moveto
39865.9 43477.3 lineto
stroke
236.22 setlinewidth
78.7406 setlinewidth
0 0 0 setrgbcolor
0 0 0 setrgbcolor
newpath
41270.2 44028.5 moveto
41345.2 44028.5 lineto
41420.2 43991 lineto
41457.7 43953.5 lineto
41495.1 43878.5 lineto
41532.6 43728.5 lineto
41532.6 43541 lineto
41495.1 43391 lineto
41457.7 43316 lineto
41420.2 43278.5 lineto
41345.2 43241.1 lineto
41270.2 43241.1 lineto
41195.2 43278.5 lineto
41157.7 43316 lineto
41120.2 43391 lineto
41082.7 43541 lineto
41082.7 43728.5 lineto
41120.2 43878.5 lineto
41157.7 43953.5 lineto
41195.2 43991 lineto
41270.2 44028.5 lineto
stroke
newpath
41870.1 43316 moveto
41907.6 43278.5 lineto
41870.1 43241.1 lineto
41832.6 43278.5 lineto
41870.1 43316 lineto
41870.1 43241.1 lineto
stroke
newpath
42207.6 43953.5 moveto
42245.1 43991 lineto
42320 44028.5 lineto
42507.5 44028.5 lineto
42582.5 43991 lineto
42620 43953.5 lineto
42657.5 43878.5 lineto
42657.5 43803.5 lineto
42620 43691 lineto
42170.1 43241.1 lineto
42657.5 43241.1 lineto
stroke
newpath
43144.9 44028.5 moveto
43219.9 44028.5 lineto
43294.9 43991 lineto
43332.4 43953.5 lineto
43369.9 43878.5 lineto
43407.4 43728.5 lineto
43407.4 43541 lineto
43369.9 43391 lineto
43332.4 43316 lineto
43294.9 43278.5 lineto
43219.9 43241.1 lineto
43144.9 43241.1 lineto
43070 43278.5 lineto
43032.5 43316 lineto
42995 43391 lineto
42957.5 43541 lineto
42957.5 43728.5 lineto
42995 43878.5 lineto
43032.5 43953.5 lineto
43070 43991 lineto
43144.9 44028.5 lineto
stroke
newpath
43669.9 44028.5 moveto
44157.3 44028.5 lineto
43894.8 43728.5 lineto
44007.3 43728.5 lineto
44082.3 43691 lineto
44119.8 43653.5 lineto
44157.3 43578.5 lineto
44157.3 43391 lineto
44119.8 43316 lineto
44082.3 43278.5 lineto
44007.3 43241.1 lineto
43782.4 43241.1 lineto
43707.4 43278.5 lineto
43669.9 43316 lineto
stroke
newpath
44494.8 43241.1 moveto
44494.8 43766 lineto
stroke
newpath
44494.8 43691 moveto
44532.3 43728.5 lineto
44607.3 43766 lineto
44719.7 43766 lineto
44794.7 43728.5 lineto
44832.2 43653.5 lineto
44832.2 43241.1 lineto
stroke
newpath
44832.2 43653.5 moveto
44869.7 43728.5 lineto
44944.7 43766 lineto
45057.2 43766 lineto
45132.2 43728.5 lineto
45169.7 43653.5 lineto
45169.7 43241.1 lineto
stroke
newpath
45544.6 43241.1 moveto
45544.6 43766 lineto
stroke
newpath
45544.6 43691 moveto
45582.1 43728.5 lineto
45657.1 43766 lineto
45769.6 43766 lineto
45844.6 43728.5 lineto
45882.1 43653.5 lineto
45882.1 43241.1 lineto
stroke
newpath
45882.1 43653.5 moveto
45919.6 43728.5 lineto
45994.6 43766 lineto
46107.1 43766 lineto
46182.1 43728.5 lineto
46219.6 43653.5 lineto
46219.6 43241.1 lineto
stroke
newpath
47756.9 44065.9 moveto
47082 43053.6 lineto
stroke
newpath
48769.2 44028.5 moveto
48844.2 44028.5 lineto
48919.2 43991 lineto
48956.7 43953.5 lineto
48994.2 43878.5 lineto
49031.7 43728.5 lineto
49031.7 43541 lineto
48994.2 43391 lineto
48956.7 43316 lineto
48919.2 43278.5 lineto
48844.2 43241.1 lineto
48769.2 43241.1 lineto
48694.3 43278.5 lineto
48656.8 43316 lineto
48619.3 43391 lineto
48581.8 43541 lineto
48581.8 43728.5 lineto
48619.3 43878.5 lineto
48656.8 43953.5 lineto
48694.3 43991 lineto
48769.2 44028.5 lineto
stroke
newpath
49369.2 43316 moveto
49406.7 43278.5 lineto
49369.2 43241.1 lineto
49331.7 43278.5 lineto
49369.2 43316 lineto
49369.2 43241.1 lineto
stroke
newpath
49894.1 44028.5 moveto
49969.1 44028.5 lineto
50044.1 43991 lineto
50081.6 43953.5 lineto
50119.1 43878.5 lineto
50156.6 43728.5 lineto
50156.6 43541 lineto
50119.1 43391 lineto
50081.6 43316 lineto
50044.1 43278.5 lineto
49969.1 43241.1 lineto
49894.1 43241.1 lineto
49819.1 43278.5 lineto
49781.6 43316 lineto
49744.1 43391 lineto
49706.6 43541 lineto
49706.6 43728.5 lineto
49744.1 43878.5 lineto
49781.6 43953.5 lineto
49819.1 43991 lineto
49894.1 44028.5 lineto
stroke
newpath
50644 44028.5 moveto
50719 44028.5 lineto
50794 43991 lineto
50831.5 43953.5 lineto
50869 43878.5 lineto
50906.5 43728.5 lineto
50906.5 43541 lineto
50869 43391 lineto
50831.5 43316 lineto
50794 43278.5 lineto
50719 43241.1 lineto
50644 43241.1 lineto
50569 43278.5 lineto
50531.5 43316 lineto
50494 43391 lineto
50456.5 43541 lineto
50456.5 43728.5 lineto
50494 43878.5 lineto
50531.5 43953.5 lineto
50569 43991 lineto
50644 44028.5 lineto
stroke
newpath
51356.4 43691 moveto
51281.4 43728.5 lineto
51243.9 43766 lineto
51206.4 43841 lineto
51206.4 43878.5 lineto
51243.9 43953.5 lineto
51281.4 43991 lineto
51356.4 44028.5 lineto
51506.4 44028.5 lineto
51581.4 43991 lineto
51618.9 43953.5 lineto
51656.4 43878.5 lineto
51656.4 43841 lineto
51618.9 43766 lineto
51581.4 43728.5 lineto
51506.4 43691 lineto
51356.4 43691 lineto
51281.4 43653.5 lineto
51243.9 43616 lineto
51206.4 43541 lineto
51206.4 43391 lineto
51243.9 43316 lineto
51281.4 43278.5 lineto
51356.4 43241.1 lineto
51506.4 43241.1 lineto
51581.4 43278.5 lineto
51618.9 43316 lineto
51656.4 43391 lineto
51656.4 43541 lineto
51618.9 43616 lineto
51581.4 43653.5 lineto
51506.4 43691 lineto
stroke
newpath
52143.8 44028.5 moveto
52218.8 44028.5 lineto
52293.8 43991 lineto
52331.3 43953.5 lineto
52368.8 43878.5 lineto
52406.3 43728.5 lineto
52406.3 43541 lineto
52368.8 43391 lineto
52331.3 43316 lineto
52293.8 43278.5 lineto
52218.8 43241.1 lineto
52143.8 43241.1 lineto
52068.8 43278.5 lineto
52031.3 43316 lineto
51993.8 43391 lineto
51956.3 43541 lineto
51956.3 43728.5 lineto
51993.8 43878.5 lineto
52031.3 43953.5 lineto
52068.8 43991 lineto
52143.8 44028.5 lineto
stroke
newpath
52706.3 44028.5 moveto
52706.3 43878.5 lineto
stroke
newpath
53006.2 44028.5 moveto
53006.2 43878.5 lineto
stroke
newpath
54168.6 42941.1 moveto
54131.1 42978.6 lineto
54056.1 43091.1 lineto
54018.6 43166.1 lineto
53981.1 43278.5 lineto
53943.6 43466 lineto
53943.6 43616 lineto
53981.1 43803.5 lineto
54018.6 43916 lineto
54056.1 43991 lineto
54131.1 44103.4 lineto
54168.6 44140.9 lineto
stroke
newpath
54806 44028.5 moveto
54656 44028.5 lineto
54581 43991 lineto
54543.5 43953.5 lineto
54468.5 43841 lineto
54431 43691 lineto
54431 43391 lineto
54468.5 43316 lineto
54506 43278.5 lineto
54581 43241.1 lineto
54731 43241.1 lineto
54806 43278.5 lineto
54843.5 43316 lineto
54881 43391 lineto
54881 43578.5 lineto
54843.5 43653.5 lineto
54806 43691 lineto
54731 43728.5 lineto
54581 43728.5 lineto
54506 43691 lineto
54468.5 43653.5 lineto
54431 43578.5 lineto
stroke
newpath
55555.9 44028.5 moveto
55405.9 44028.5 lineto
55330.9 43991 lineto
55293.4 43953.5 lineto
55218.4 43841 lineto
55180.9 43691 lineto
55180.9 43391 lineto
55218.4 43316 lineto
55255.9 43278.5 lineto
55330.9 43241.1 lineto
55480.9 43241.1 lineto
55555.9 43278.5 lineto
55593.4 43316 lineto
55630.9 43391 lineto
55630.9 43578.5 lineto
55593.4 43653.5 lineto
55555.9 43691 lineto
55480.9 43728.5 lineto
55330.9 43728.5 lineto
55255.9 43691 lineto
55218.4 43653.5 lineto
55180.9 43578.5 lineto
stroke
newpath
56568.3 43241.1 moveto
56568.3 44028.5 lineto
stroke
newpath
56905.7 43241.1 moveto
56905.7 43653.5 lineto
56868.2 43728.5 lineto
56793.2 43766 lineto
56680.8 43766 lineto
56605.8 43728.5 lineto
56568.3 43691 lineto
stroke
newpath
57393.2 43241.1 moveto
57318.2 43278.5 lineto
57280.7 43316 lineto
57243.2 43391 lineto
57243.2 43616 lineto
57280.7 43691 lineto
57318.2 43728.5 lineto
57393.2 43766 lineto
57505.7 43766 lineto
57580.6 43728.5 lineto
57618.1 43691 lineto
57655.6 43616 lineto
57655.6 43391 lineto
57618.1 43316 lineto
57580.6 43278.5 lineto
57505.7 43241.1 lineto
57393.2 43241.1 lineto
stroke
newpath
58105.6 43241.1 moveto
58030.6 43278.5 lineto
57993.1 43353.5 lineto
57993.1 44028.5 lineto
stroke
newpath
58705.5 43278.5 moveto
58630.5 43241.1 lineto
58480.5 43241.1 lineto
58405.5 43278.5 lineto
58368 43353.5 lineto
58368 43653.5 lineto
58405.5 43728.5 lineto
58480.5 43766 lineto
58630.5 43766 lineto
58705.5 43728.5 lineto
58743 43653.5 lineto
58743 43578.5 lineto
58368 43503.5 lineto
stroke
newpath
59043 43278.5 moveto
59118 43241.1 lineto
59267.9 43241.1 lineto
59342.9 43278.5 lineto
59380.4 43353.5 lineto
59380.4 43391 lineto
59342.9 43466 lineto
59267.9 43503.5 lineto
59155.4 43503.5 lineto
59080.5 43541 lineto
59043 43616 lineto
59043 43653.5 lineto
59080.5 43728.5 lineto
59155.4 43766 lineto
59267.9 43766 lineto
59342.9 43728.5 lineto
stroke
newpath
59642.9 42941.1 moveto
59680.4 42978.6 lineto
59755.4 43091.1 lineto
59792.9 43166.1 lineto
59830.4 43278.5 lineto
59867.9 43466 lineto
59867.9 43616 lineto
59830.4 43803.5 lineto
59792.9 43916 lineto
59755.4 43991 lineto
59680.4 44103.4 lineto
59642.9 44140.9 lineto
stroke
78.7394 setlinewidth
39712.2 42557.9 393.7 cir0
236.22 setlinewidth
78.7406 setlinewidth
0 0 0 setrgbcolor
0 0 0 setrgbcolor
newpath
41270.2 42989.1 moveto
41345.2 42989.1 lineto
41420.2 42951.6 lineto
41457.7 42914.1 lineto
41495.1 42839.1 lineto
41532.6 42689.1 lineto
41532.6 42501.6 lineto
41495.1 42351.7 lineto
41457.7 42276.7 lineto
41420.2 42239.2 lineto
41345.2 42201.7 lineto
41270.2 42201.7 lineto
41195.2 42239.2 lineto
41157.7 42276.7 lineto
41120.2 42351.7 lineto
41082.7 42501.6 lineto
41082.7 42689.1 lineto
41120.2 42839.1 lineto
41157.7 42914.1 lineto
41195.2 42951.6 lineto
41270.2 42989.1 lineto
stroke
newpath
41870.1 42276.7 moveto
41907.6 42239.2 lineto
41870.1 42201.7 lineto
41832.6 42239.2 lineto
41870.1 42276.7 lineto
41870.1 42201.7 lineto
stroke
newpath
42282.5 42201.7 moveto
42432.5 42201.7 lineto
42507.5 42239.2 lineto
42545 42276.7 lineto
42620 42389.2 lineto
42657.5 42539.1 lineto
42657.5 42839.1 lineto
42620 42914.1 lineto
42582.5 42951.6 lineto
42507.5 42989.1 lineto
42357.5 42989.1 lineto
42282.5 42951.6 lineto
42245.1 42914.1 lineto
42207.6 42839.1 lineto
42207.6 42651.6 lineto
42245.1 42576.6 lineto
42282.5 42539.1 lineto
42357.5 42501.6 lineto
42507.5 42501.6 lineto
42582.5 42539.1 lineto
42620 42576.6 lineto
42657.5 42651.6 lineto
stroke
newpath
43332.4 42989.1 moveto
43182.4 42989.1 lineto
43107.4 42951.6 lineto
43070 42914.1 lineto
42995 42801.6 lineto
42957.5 42651.6 lineto
42957.5 42351.7 lineto
42995 42276.7 lineto
43032.5 42239.2 lineto
43107.4 42201.7 lineto
43257.4 42201.7 lineto
43332.4 42239.2 lineto
43369.9 42276.7 lineto
43407.4 42351.7 lineto
43407.4 42539.1 lineto
43369.9 42614.1 lineto
43332.4 42651.6 lineto
43257.4 42689.1 lineto
43107.4 42689.1 lineto
43032.5 42651.6 lineto
42995 42614.1 lineto
42957.5 42539.1 lineto
stroke
newpath
44119.8 42989.1 moveto
43744.9 42989.1 lineto
43707.4 42614.1 lineto
43744.9 42651.6 lineto
43819.9 42689.1 lineto
44007.3 42689.1 lineto
44082.3 42651.6 lineto
44119.8 42614.1 lineto
44157.3 42539.1 lineto
44157.3 42351.7 lineto
44119.8 42276.7 lineto
44082.3 42239.2 lineto
44007.3 42201.7 lineto
43819.9 42201.7 lineto
43744.9 42239.2 lineto
43707.4 42276.7 lineto
stroke
newpath
44494.8 42201.7 moveto
44494.8 42726.6 lineto
stroke
newpath
44494.8 42651.6 moveto
44532.3 42689.1 lineto
44607.3 42726.6 lineto
44719.7 42726.6 lineto
44794.7 42689.1 lineto
44832.2 42614.1 lineto
44832.2 42201.7 lineto
stroke
newpath
44832.2 42614.1 moveto
44869.7 42689.1 lineto
44944.7 42726.6 lineto
45057.2 42726.6 lineto
45132.2 42689.1 lineto
45169.7 42614.1 lineto
45169.7 42201.7 lineto
stroke
newpath
45544.6 42201.7 moveto
45544.6 42726.6 lineto
stroke
newpath
45544.6 42651.6 moveto
45582.1 42689.1 lineto
45657.1 42726.6 lineto
45769.6 42726.6 lineto
45844.6 42689.1 lineto
45882.1 42614.1 lineto
45882.1 42201.7 lineto
stroke
newpath
45882.1 42614.1 moveto
45919.6 42689.1 lineto
45994.6 42726.6 lineto
46107.1 42726.6 lineto
46182.1 42689.1 lineto
46219.6 42614.1 lineto
46219.6 42201.7 lineto
stroke
newpath
47756.9 43026.6 moveto
47082 42014.2 lineto
stroke
newpath
48769.2 42989.1 moveto
48844.2 42989.1 lineto
48919.2 42951.6 lineto
48956.7 42914.1 lineto
48994.2 42839.1 lineto
49031.7 42689.1 lineto
49031.7 42501.6 lineto
48994.2 42351.7 lineto
48956.7 42276.7 lineto
48919.2 42239.2 lineto
48844.2 42201.7 lineto
48769.2 42201.7 lineto
48694.3 42239.2 lineto
48656.8 42276.7 lineto
48619.3 42351.7 lineto
48581.8 42501.6 lineto
48581.8 42689.1 lineto
48619.3 42839.1 lineto
48656.8 42914.1 lineto
48694.3 42951.6 lineto
48769.2 42989.1 lineto
stroke
newpath
49369.2 42276.7 moveto
49406.7 42239.2 lineto
49369.2 42201.7 lineto
49331.7 42239.2 lineto
49369.2 42276.7 lineto
49369.2 42201.7 lineto
stroke
newpath
49894.1 42989.1 moveto
49969.1 42989.1 lineto
50044.1 42951.6 lineto
50081.6 42914.1 lineto
50119.1 42839.1 lineto
50156.6 42689.1 lineto
50156.6 42501.6 lineto
50119.1 42351.7 lineto
50081.6 42276.7 lineto
50044.1 42239.2 lineto
49969.1 42201.7 lineto
49894.1 42201.7 lineto
49819.1 42239.2 lineto
49781.6 42276.7 lineto
49744.1 42351.7 lineto
49706.6 42501.6 lineto
49706.6 42689.1 lineto
49744.1 42839.1 lineto
49781.6 42914.1 lineto
49819.1 42951.6 lineto
49894.1 42989.1 lineto
stroke
newpath
50419 42989.1 moveto
50906.5 42989.1 lineto
50644 42689.1 lineto
50756.5 42689.1 lineto
50831.5 42651.6 lineto
50869 42614.1 lineto
50906.5 42539.1 lineto
50906.5 42351.7 lineto
50869 42276.7 lineto
50831.5 42239.2 lineto
50756.5 42201.7 lineto
50531.5 42201.7 lineto
50456.5 42239.2 lineto
50419 42276.7 lineto
stroke
newpath
51356.4 42651.6 moveto
51281.4 42689.1 lineto
51243.9 42726.6 lineto
51206.4 42801.6 lineto
51206.4 42839.1 lineto
51243.9 42914.1 lineto
51281.4 42951.6 lineto
51356.4 42989.1 lineto
51506.4 42989.1 lineto
51581.4 42951.6 lineto
51618.9 42914.1 lineto
51656.4 42839.1 lineto
51656.4 42801.6 lineto
51618.9 42726.6 lineto
51581.4 42689.1 lineto
51506.4 42651.6 lineto
51356.4 42651.6 lineto
51281.4 42614.1 lineto
51243.9 42576.6 lineto
51206.4 42501.6 lineto
51206.4 42351.7 lineto
51243.9 42276.7 lineto
51281.4 42239.2 lineto
51356.4 42201.7 lineto
51506.4 42201.7 lineto
51581.4 42239.2 lineto
51618.9 42276.7 lineto
51656.4 42351.7 lineto
51656.4 42501.6 lineto
51618.9 42576.6 lineto
51581.4 42614.1 lineto
51506.4 42651.6 lineto
stroke
newpath
52143.8 42989.1 moveto
52218.8 42989.1 lineto
52293.8 42951.6 lineto
52331.3 42914.1 lineto
52368.8 42839.1 lineto
52406.3 42689.1 lineto
52406.3 42501.6 lineto
52368.8 42351.7 lineto
52331.3 42276.7 lineto
52293.8 42239.2 lineto
52218.8 42201.7 lineto
52143.8 42201.7 lineto
52068.8 42239.2 lineto
52031.3 42276.7 lineto
51993.8 42351.7 lineto
51956.3 42501.6 lineto
51956.3 42689.1 lineto
51993.8 42839.1 lineto
52031.3 42914.1 lineto
52068.8 42951.6 lineto
52143.8 42989.1 lineto
stroke
newpath
52706.3 42989.1 moveto
52706.3 42839.1 lineto
stroke
newpath
53006.2 42989.1 moveto
53006.2 42839.1 lineto
stroke
newpath
54168.6 41901.7 moveto
54131.1 41939.2 lineto
54056.1 42051.7 lineto
54018.6 42126.7 lineto
53981.1 42239.2 lineto
53943.6 42426.7 lineto
53943.6 42576.6 lineto
53981.1 42764.1 lineto
54018.6 42876.6 lineto
54056.1 42951.6 lineto
54131.1 43064.1 lineto
54168.6 43101.6 lineto
stroke
newpath
54843.5 42989.1 moveto
54468.5 42989.1 lineto
54431 42614.1 lineto
54468.5 42651.6 lineto
54543.5 42689.1 lineto
54731 42689.1 lineto
54806 42651.6 lineto
54843.5 42614.1 lineto
54881 42539.1 lineto
54881 42351.7 lineto
54843.5 42276.7 lineto
54806 42239.2 lineto
54731 42201.7 lineto
54543.5 42201.7 lineto
54468.5 42239.2 lineto
54431 42276.7 lineto
stroke
newpath
55818.4 42201.7 moveto
55818.4 42989.1 lineto
stroke
newpath
56155.8 42201.7 moveto
56155.8 42614.1 lineto
56118.3 42689.1 lineto
56043.3 42726.6 lineto
55930.8 42726.6 lineto
55855.9 42689.1 lineto
55818.4 42651.6 lineto
stroke
newpath
56643.3 42201.7 moveto
56568.3 42239.2 lineto
56530.8 42276.7 lineto
56493.3 42351.7 lineto
56493.3 42576.6 lineto
56530.8 42651.6 lineto
56568.3 42689.1 lineto
56643.3 42726.6 lineto
56755.7 42726.6 lineto
56830.7 42689.1 lineto
56868.2 42651.6 lineto
56905.7 42576.6 lineto
56905.7 42351.7 lineto
56868.2 42276.7 lineto
56830.7 42239.2 lineto
56755.7 42201.7 lineto
56643.3 42201.7 lineto
stroke
newpath
57355.7 42201.7 moveto
57280.7 42239.2 lineto
57243.2 42314.2 lineto
57243.2 42989.1 lineto
stroke
newpath
57955.6 42239.2 moveto
57880.6 42201.7 lineto
57730.6 42201.7 lineto
57655.6 42239.2 lineto
57618.1 42314.2 lineto
57618.1 42614.1 lineto
57655.6 42689.1 lineto
57730.6 42726.6 lineto
57880.6 42726.6 lineto
57955.6 42689.1 lineto
57993.1 42614.1 lineto
57993.1 42539.1 lineto
57618.1 42464.1 lineto
stroke
newpath
58293.1 42239.2 moveto
58368 42201.7 lineto
58518 42201.7 lineto
58593 42239.2 lineto
58630.5 42314.2 lineto
58630.5 42351.7 lineto
58593 42426.7 lineto
58518 42464.1 lineto
58405.5 42464.1 lineto
58330.6 42501.6 lineto
58293.1 42576.6 lineto
58293.1 42614.1 lineto
58330.6 42689.1 lineto
58405.5 42726.6 lineto
58518 42726.6 lineto
58593 42689.1 lineto
stroke
newpath
58893 41901.7 moveto
58930.5 41939.2 lineto
59005.5 42051.7 lineto
59043 42126.7 lineto
59080.5 42239.2 lineto
59118 42426.7 lineto
59118 42576.6 lineto
59080.5 42764.1 lineto
59043 42876.6 lineto
59005.5 42951.6 lineto
58930.5 43064.1 lineto
58893 43101.6 lineto
stroke
78.7394 setlinewidth
newpath
39712.2 41691.7 moveto
39712.2 40904.3 lineto
stroke
newpath
39318.5 41298 moveto
40105.9 41298 lineto
stroke
236.22 setlinewidth
78.7406 setlinewidth
0 0 0 setrgbcolor
0 0 0 setrgbcolor
newpath
41532.6 40941.8 moveto
41082.7 40941.8 lineto
stroke
newpath
41307.7 40941.8 moveto
41307.7 41729.2 lineto
41232.7 41616.8 lineto
41157.7 41541.8 lineto
41082.7 41504.3 lineto
stroke
newpath
41870.1 41016.8 moveto
41907.6 40979.3 lineto
41870.1 40941.8 lineto
41832.6 40979.3 lineto
41870.1 41016.8 lineto
41870.1 40941.8 lineto
stroke
newpath
42395 41729.2 moveto
42470 41729.2 lineto
42545 41691.7 lineto
42582.5 41654.3 lineto
42620 41579.3 lineto
42657.5 41429.3 lineto
42657.5 41241.8 lineto
42620 41091.8 lineto
42582.5 41016.8 lineto
42545 40979.3 lineto
42470 40941.8 lineto
42395 40941.8 lineto
42320 40979.3 lineto
42282.5 41016.8 lineto
42245.1 41091.8 lineto
42207.6 41241.8 lineto
42207.6 41429.3 lineto
42245.1 41579.3 lineto
42282.5 41654.3 lineto
42320 41691.7 lineto
42395 41729.2 lineto
stroke
newpath
43144.9 41729.2 moveto
43219.9 41729.2 lineto
43294.9 41691.7 lineto
43332.4 41654.3 lineto
43369.9 41579.3 lineto
43407.4 41429.3 lineto
43407.4 41241.8 lineto
43369.9 41091.8 lineto
43332.4 41016.8 lineto
43294.9 40979.3 lineto
43219.9 40941.8 lineto
43144.9 40941.8 lineto
43070 40979.3 lineto
43032.5 41016.8 lineto
42995 41091.8 lineto
42957.5 41241.8 lineto
42957.5 41429.3 lineto
42995 41579.3 lineto
43032.5 41654.3 lineto
43070 41691.7 lineto
43144.9 41729.2 lineto
stroke
newpath
43894.8 41729.2 moveto
43969.8 41729.2 lineto
44044.8 41691.7 lineto
44082.3 41654.3 lineto
44119.8 41579.3 lineto
44157.3 41429.3 lineto
44157.3 41241.8 lineto
44119.8 41091.8 lineto
44082.3 41016.8 lineto
44044.8 40979.3 lineto
43969.8 40941.8 lineto
43894.8 40941.8 lineto
43819.9 40979.3 lineto
43782.4 41016.8 lineto
43744.9 41091.8 lineto
43707.4 41241.8 lineto
43707.4 41429.3 lineto
43744.9 41579.3 lineto
43782.4 41654.3 lineto
43819.9 41691.7 lineto
43894.8 41729.2 lineto
stroke
newpath
44494.8 40941.8 moveto
44494.8 41466.8 lineto
stroke
newpath
44494.8 41391.8 moveto
44532.3 41429.3 lineto
44607.3 41466.8 lineto
44719.7 41466.8 lineto
44794.7 41429.3 lineto
44832.2 41354.3 lineto
44832.2 40941.8 lineto
stroke
newpath
44832.2 41354.3 moveto
44869.7 41429.3 lineto
44944.7 41466.8 lineto
45057.2 41466.8 lineto
45132.2 41429.3 lineto
45169.7 41354.3 lineto
45169.7 40941.8 lineto
stroke
newpath
45544.6 40941.8 moveto
45544.6 41466.8 lineto
stroke
newpath
45544.6 41391.8 moveto
45582.1 41429.3 lineto
45657.1 41466.8 lineto
45769.6 41466.8 lineto
45844.6 41429.3 lineto
45882.1 41354.3 lineto
45882.1 40941.8 lineto
stroke
newpath
45882.1 41354.3 moveto
45919.6 41429.3 lineto
45994.6 41466.8 lineto
46107.1 41466.8 lineto
46182.1 41429.3 lineto
46219.6 41354.3 lineto
46219.6 40941.8 lineto
stroke
newpath
47756.9 41766.7 moveto
47082 40754.4 lineto
stroke
newpath
48769.2 41729.2 moveto
48844.2 41729.2 lineto
48919.2 41691.7 lineto
48956.7 41654.3 lineto
48994.2 41579.3 lineto
49031.7 41429.3 lineto
49031.7 41241.8 lineto
48994.2 41091.8 lineto
48956.7 41016.8 lineto
48919.2 40979.3 lineto
48844.2 40941.8 lineto
48769.2 40941.8 lineto
48694.3 40979.3 lineto
48656.8 41016.8 lineto
48619.3 41091.8 lineto
48581.8 41241.8 lineto
48581.8 41429.3 lineto
48619.3 41579.3 lineto
48656.8 41654.3 lineto
48694.3 41691.7 lineto
48769.2 41729.2 lineto
stroke
newpath
49369.2 41016.8 moveto
49406.7 40979.3 lineto
49369.2 40941.8 lineto
49331.7 40979.3 lineto
49369.2 41016.8 lineto
49369.2 40941.8 lineto
stroke
newpath
49894.1 41729.2 moveto
49969.1 41729.2 lineto
50044.1 41691.7 lineto
50081.6 41654.3 lineto
50119.1 41579.3 lineto
50156.6 41429.3 lineto
50156.6 41241.8 lineto
50119.1 41091.8 lineto
50081.6 41016.8 lineto
50044.1 40979.3 lineto
49969.1 40941.8 lineto
49894.1 40941.8 lineto
49819.1 40979.3 lineto
49781.6 41016.8 lineto
49744.1 41091.8 lineto
49706.6 41241.8 lineto
49706.6 41429.3 lineto
49744.1 41579.3 lineto
49781.6 41654.3 lineto
49819.1 41691.7 lineto
49894.1 41729.2 lineto
stroke
newpath
50419 41729.2 moveto
50906.5 41729.2 lineto
50644 41429.3 lineto
50756.5 41429.3 lineto
50831.5 41391.8 lineto
50869 41354.3 lineto
50906.5 41279.3 lineto
50906.5 41091.8 lineto
50869 41016.8 lineto
50831.5 40979.3 lineto
50756.5 40941.8 lineto
50531.5 40941.8 lineto
50456.5 40979.3 lineto
50419 41016.8 lineto
stroke
newpath
51281.4 40941.8 moveto
51431.4 40941.8 lineto
51506.4 40979.3 lineto
51543.9 41016.8 lineto
51618.9 41129.3 lineto
51656.4 41279.3 lineto
51656.4 41579.3 lineto
51618.9 41654.3 lineto
51581.4 41691.7 lineto
51506.4 41729.2 lineto
51356.4 41729.2 lineto
51281.4 41691.7 lineto
51243.9 41654.3 lineto
51206.4 41579.3 lineto
51206.4 41391.8 lineto
51243.9 41316.8 lineto
51281.4 41279.3 lineto
51356.4 41241.8 lineto
51506.4 41241.8 lineto
51581.4 41279.3 lineto
51618.9 41316.8 lineto
51656.4 41391.8 lineto
stroke
newpath
52331.3 41466.8 moveto
52331.3 40941.8 lineto
stroke
newpath
52143.8 41766.7 moveto
51956.3 41204.3 lineto
52443.8 41204.3 lineto
stroke
newpath
52706.3 41729.2 moveto
52706.3 41579.3 lineto
stroke
newpath
53006.2 41729.2 moveto
53006.2 41579.3 lineto
stroke
newpath
54168.6 40641.9 moveto
54131.1 40679.4 lineto
54056.1 40791.9 lineto
54018.6 40866.8 lineto
53981.1 40979.3 lineto
53943.6 41166.8 lineto
53943.6 41316.8 lineto
53981.1 41504.3 lineto
54018.6 41616.8 lineto
54056.1 41691.7 lineto
54131.1 41804.2 lineto
54168.6 41841.7 lineto
stroke
newpath
54806 41729.2 moveto
54656 41729.2 lineto
54581 41691.7 lineto
54543.5 41654.3 lineto
54468.5 41541.8 lineto
54431 41391.8 lineto
54431 41091.8 lineto
54468.5 41016.8 lineto
54506 40979.3 lineto
54581 40941.8 lineto
54731 40941.8 lineto
54806 40979.3 lineto
54843.5 41016.8 lineto
54881 41091.8 lineto
54881 41279.3 lineto
54843.5 41354.3 lineto
54806 41391.8 lineto
54731 41429.3 lineto
54581 41429.3 lineto
54506 41391.8 lineto
54468.5 41354.3 lineto
54431 41279.3 lineto
stroke
newpath
55818.4 40941.8 moveto
55818.4 41729.2 lineto
stroke
newpath
56155.8 40941.8 moveto
56155.8 41354.3 lineto
56118.3 41429.3 lineto
56043.3 41466.8 lineto
55930.8 41466.8 lineto
55855.9 41429.3 lineto
55818.4 41391.8 lineto
stroke
newpath
56643.3 40941.8 moveto
56568.3 40979.3 lineto
56530.8 41016.8 lineto
56493.3 41091.8 lineto
56493.3 41316.8 lineto
56530.8 41391.8 lineto
56568.3 41429.3 lineto
56643.3 41466.8 lineto
56755.7 41466.8 lineto
56830.7 41429.3 lineto
56868.2 41391.8 lineto
56905.7 41316.8 lineto
56905.7 41091.8 lineto
56868.2 41016.8 lineto
56830.7 40979.3 lineto
56755.7 40941.8 lineto
56643.3 40941.8 lineto
stroke
newpath
57355.7 40941.8 moveto
57280.7 40979.3 lineto
57243.2 41054.3 lineto
57243.2 41729.2 lineto
stroke
newpath
57955.6 40979.3 moveto
57880.6 40941.8 lineto
57730.6 40941.8 lineto
57655.6 40979.3 lineto
57618.1 41054.3 lineto
57618.1 41354.3 lineto
57655.6 41429.3 lineto
57730.6 41466.8 lineto
57880.6 41466.8 lineto
57955.6 41429.3 lineto
57993.1 41354.3 lineto
57993.1 41279.3 lineto
57618.1 41204.3 lineto
stroke
newpath
58293.1 40979.3 moveto
58368 40941.8 lineto
58518 40941.8 lineto
58593 40979.3 lineto
58630.5 41054.3 lineto
58630.5 41091.8 lineto
58593 41166.8 lineto
58518 41204.3 lineto
58405.5 41204.3 lineto
58330.6 41241.8 lineto
58293.1 41316.8 lineto
58293.1 41354.3 lineto
58330.6 41429.3 lineto
58405.5 41466.8 lineto
58518 41466.8 lineto
58593 41429.3 lineto
stroke
newpath
58893 40641.9 moveto
58930.5 40679.4 lineto
59005.5 40791.9 lineto
59043 40866.8 lineto
59080.5 40979.3 lineto
59118 41166.8 lineto
59118 41316.8 lineto
59080.5 41504.3 lineto
59043 41616.8 lineto
59005.5 41691.7 lineto
58930.5 41804.2 lineto
58893 41841.7 lineto
stroke
showpage
grestore
%%EOF
