%!PS-Adobe-3.0
%%Creator: PCBNEW
%%CreationDate: Fri Jan 20 09:16:29 2023
%%Title: ()
%%Pages: 1
%%PageOrder: Ascend
%%BoundingBox: 0 0 596 842
%%DocumentMedia: A4 595 842 0 () ()
%%Orientation: Landscape
%%EndComments
%%BeginProlog
/line { newpath moveto lineto stroke } bind def
/cir0 { newpath 0 360 arc stroke } bind def
/cir1 { newpath 0 360 arc gsave fill grestore stroke } bind def
/cir2 { newpath 0 360 arc gsave fill grestore stroke } bind def
/arc0 { newpath arc stroke } bind def
/arc1 { newpath 4 index 4 index moveto arc closepath gsave fill
    grestore stroke } bind def
/arc2 { newpath 4 index 4 index moveto arc closepath gsave fill
    grestore stroke } bind def
/poly0 { stroke } bind def
/poly1 { closepath gsave fill grestore stroke } bind def
/poly2 { closepath gsave fill grestore stroke } bind def
/rect0 { rectstroke } bind def
/rect1 { rectfill } bind def
/rect2 { rectfill } bind def
/linemode0 { 0 setlinecap 0 setlinejoin 0 setlinewidth } bind def
/linemode1 { 1 setlinecap 1 setlinejoin } bind def
/dashedline { [200] 100 setdash } bind def
/solidline { [] 0 setdash } bind def
/phantomshow { moveto
    /KicadFont findfont 0.000001 scalefont setfont
    show } bind def
/textshow { gsave
    findfont exch scalefont setfont concat 1 scale 0 0 moveto show
    } bind def
/reencodefont {
  findfont dup length dict begin
  { 1 index /FID ne
    { def }
    { pop pop } ifelse
  } forall
  /Encoding ISOLatin1Encoding def
  currentdict
  end } bind def
/KicadFont /Helvetica reencodefont definefont pop
/KicadFont-Bold /Helvetica-Bold reencodefont definefont pop
/KicadFont-Oblique /Helvetica-Oblique reencodefont definefont pop
/KicadFont-BoldOblique /Helvetica-BoldOblique reencodefont definefont pop
%%EndProlog
%%Page: 1 1
%%BeginPageSetup
gsave
0.0072 0.0072 scale
linemode1
82680 0 translate 90 rotate
236.22 setlinewidth
%%EndPageSetup
0 0 0 setrgbcolor
118.11 setlinewidth
newpath
49765 46176 moveto
50665 47676 lineto
stroke
0 0 0 setrgbcolor
newpath
45265 47676 moveto
46165 46176 lineto
stroke
0 0 0 setrgbcolor
newpath
50665 47676 moveto
74965 47676 lineto
stroke
0 0 0 setrgbcolor
newpath
40165 68076 moveto
40165 47676 lineto
stroke
0 0 0 setrgbcolor
newpath
46165 69576 moveto
45265 68076 lineto
stroke
0 0 0 setrgbcolor
newpath
49765 69576 moveto
46165 69576 lineto
stroke
0 0 0 setrgbcolor
newpath
40165 47676 moveto
45265 47676 lineto
stroke
0 0 0 setrgbcolor
newpath
50665 68076 moveto
74965 68076 lineto
stroke
0 0 0 setrgbcolor
newpath
74965 47676 moveto
76765 49776 lineto
stroke
0 0 0 setrgbcolor
newpath
45265 68076 moveto
40165 68076 lineto
stroke
0 0 0 setrgbcolor
newpath
50665 68076 moveto
49765 69576 lineto
stroke
0 0 0 setrgbcolor
newpath
76765 49776 moveto
76765 65976 lineto
stroke
0 0 0 setrgbcolor
newpath
74965 68076 moveto
76765 65976 lineto
stroke
0 0 0 setrgbcolor
newpath
46165 46176 moveto
49765 46176 lineto
stroke
236.22 setlinewidth
78.7406 setlinewidth
0 0 0 setrgbcolor
0 0 0 setrgbcolor
newpath
41120.2 44894.6 moveto
41120.2 45682 lineto
41307.7 45682 lineto
41420.2 45644.5 lineto
41495.1 45569.5 lineto
41532.6 45494.5 lineto
41570.1 45344.5 lineto
41570.1 45232.1 lineto
41532.6 45082.1 lineto
41495.1 45007.1 lineto
41420.2 44932.1 lineto
41307.7 44894.6 lineto
41120.2 44894.6 lineto
stroke
newpath
41907.6 44894.6 moveto
41907.6 45419.5 lineto
stroke
newpath
41907.6 45269.6 moveto
41945.1 45344.5 lineto
41982.6 45382 lineto
42057.6 45419.5 lineto
42132.6 45419.5 lineto
stroke
newpath
42395 44894.6 moveto
42395 45419.5 lineto
stroke
newpath
42395 45682 moveto
42357.5 45644.5 lineto
42395 45607 lineto
42432.5 45644.5 lineto
42395 45682 lineto
42395 45607 lineto
stroke
newpath
42882.5 44894.6 moveto
42807.5 44932.1 lineto
42770 45007.1 lineto
42770 45682 lineto
stroke
newpath
43294.9 44894.6 moveto
43219.9 44932.1 lineto
43182.4 45007.1 lineto
43182.4 45682 lineto
stroke
newpath
44194.8 44894.6 moveto
44194.8 45682 lineto
44457.3 45119.6 lineto
44719.7 45682 lineto
44719.7 44894.6 lineto
stroke
newpath
45432.2 44894.6 moveto
45432.2 45307 lineto
45394.7 45382 lineto
45319.7 45419.5 lineto
45169.7 45419.5 lineto
45094.7 45382 lineto
stroke
newpath
45432.2 44932.1 moveto
45357.2 44894.6 lineto
45169.7 44894.6 lineto
45094.7 44932.1 lineto
45057.2 45007.1 lineto
45057.2 45082.1 lineto
45094.7 45157.1 lineto
45169.7 45194.6 lineto
45357.2 45194.6 lineto
45432.2 45232.1 lineto
stroke
newpath
45807.1 45419.5 moveto
45807.1 44632.1 lineto
stroke
newpath
45807.1 45382 moveto
45882.1 45419.5 lineto
46032.1 45419.5 lineto
46107.1 45382 lineto
46144.6 45344.5 lineto
46182.1 45269.6 lineto
46182.1 45044.6 lineto
46144.6 44969.6 lineto
46107.1 44932.1 lineto
46032.1 44894.6 lineto
45882.1 44894.6 lineto
45807.1 44932.1 lineto
stroke
newpath
46519.5 44969.6 moveto
46557 44932.1 lineto
46519.5 44894.6 lineto
46482 44932.1 lineto
46519.5 44969.6 lineto
46519.5 44894.6 lineto
stroke
newpath
46519.5 45382 moveto
46557 45344.5 lineto
46519.5 45307 lineto
46482 45344.5 lineto
46519.5 45382 lineto
46519.5 45307 lineto
stroke
showpage
grestore
%%EOF
