%TF.GenerationSoftware,KiCad,Pcbnew,(6.0.10)*%
%TF.CreationDate,2023-01-20T09:16:26+09:00*%
%TF.ProjectId,AstropixTrigger,41737472-6f70-4697-9854-726967676572,rev?*%
%TF.SameCoordinates,Original*%
%TF.FileFunction,Soldermask,Bot*%
%TF.FilePolarity,Negative*%
%FSLAX46Y46*%
G04 Gerber Fmt 4.6, Leading zero omitted, Abs format (unit mm)*
G04 Created by KiCad (PCBNEW (6.0.10)) date 2023-01-20 09:16:26*
%MOMM*%
%LPD*%
G01*
G04 APERTURE LIST*
%ADD10C,1.473200*%
%ADD11R,1.700000X1.700000*%
%ADD12O,1.700000X1.700000*%
G04 APERTURE END LIST*
D10*
%TO.C,J2*%
X136486900Y-70612000D03*
X139026900Y-68072000D03*
X133946900Y-68072000D03*
X133946900Y-73152000D03*
X139026900Y-73152000D03*
%TD*%
D11*
%TO.C,J1*%
X110998000Y-77216000D03*
D12*
X110998000Y-74676000D03*
X110998000Y-72136000D03*
X110998000Y-69596000D03*
X110998000Y-67056000D03*
X110998000Y-64516000D03*
%TD*%
M02*
