(module CONN_EPK.00.250.NTN_LMO (layer F.Cu)
  (fp_text reference REF** (at 0 0) (layer F.SilkS)
    (effects (font (size 1 1) (thickness .15)))
  )
  (fp_text value CONN_EPK.00.250.NTN_LMO (at 0 0) (layer F.SilkS)
    (effects (font (size 1 1) (thickness .15)))
  )
  (fp_text user "Copyright 2021 Accelerated Designs. All rights reserved." (at 0 0) (layer Cmts.User)
    (effects (font (size .127 .127) (thickness .002)))
  )
  (fp_text user "*" (at 0 0) (layer F.SilkS)
    (effects (font (size 1 1) (thickness .15)))
  )
  (fp_text user "*" (at 0 0) (layer F.Fab)
    (effects (font (size 1 1) (thickness .15)))
  )
  (fp_line (start -4.99364 4.035669) (end -4.99364 -14.525868) (layer F.CrtYd) (width .05))
  (fp_line (start -4.99364 -14.525868) (end 4.99364 -14.525868) (layer F.CrtYd) (width .05))
  (fp_line (start 4.99364 -14.525868) (end 4.99364 4.035669) (layer F.CrtYd) (width .05))
  (fp_line (start 4.99364 4.035669) (end -4.99364 4.035669) (layer F.CrtYd) (width .05))
  (fp_line (start -2.54 -2.54) (end -6.4262 -2.54) (layer Cmts.User) (width 0))
  (fp_line (start -2.54 2.54) (end -6.4262 2.54) (layer Cmts.User) (width 0))
  (fp_line (start -6.0452 -2.54) (end -6.0452 2.54) (layer Cmts.User) (width 0))
  (fp_line (start -6.0452 -2.54) (end -6.1722 -2.286) (layer Cmts.User) (width 0))
  (fp_line (start -6.0452 -2.54) (end -5.9182 -2.286) (layer Cmts.User) (width 0))
  (fp_line (start -6.1722 -2.286) (end -5.9182 -2.286) (layer Cmts.User) (width 0))
  (fp_line (start -6.0452 2.54) (end -6.1722 2.286) (layer Cmts.User) (width 0))
  (fp_line (start -6.0452 2.54) (end -5.9182 2.286) (layer Cmts.User) (width 0))
  (fp_line (start -6.1722 2.286) (end -5.9182 2.286) (layer Cmts.User) (width 0))
  (fp_line (start -2.54 2.54) (end -2.54 6.4262) (layer Cmts.User) (width 0))
  (fp_line (start 2.54 2.54) (end 2.54 6.4262) (layer Cmts.User) (width 0))
  (fp_line (start -2.54 6.0452) (end 2.54 6.0452) (layer Cmts.User) (width 0))
  (fp_line (start -2.54 6.0452) (end -2.286 5.9182) (layer Cmts.User) (width 0))
  (fp_line (start -2.54 6.0452) (end -2.286 6.1722) (layer Cmts.User) (width 0))
  (fp_line (start -2.286 5.9182) (end -2.286 6.1722) (layer Cmts.User) (width 0))
  (fp_line (start 2.54 6.0452) (end 2.286 5.9182) (layer Cmts.User) (width 0))
  (fp_line (start 2.54 6.0452) (end 2.286 6.1722) (layer Cmts.User) (width 0))
  (fp_line (start 2.286 5.9182) (end 2.286 6.1722) (layer Cmts.User) (width 0))
  (fp_line (start -3.4036 -13.9954) (end -3.4036 -16.9164) (layer Cmts.User) (width 0))
  (fp_line (start 3.4036 -13.9954) (end 3.4036 -16.9164) (layer Cmts.User) (width 0))
  (fp_line (start -3.4036 -16.5354) (end 3.4036 -16.5354) (layer Cmts.User) (width 0))
  (fp_line (start -3.4036 -16.5354) (end -3.1496 -16.6624) (layer Cmts.User) (width 0))
  (fp_line (start -3.4036 -16.5354) (end -3.1496 -16.4084) (layer Cmts.User) (width 0))
  (fp_line (start -3.1496 -16.6624) (end -3.1496 -16.4084) (layer Cmts.User) (width 0))
  (fp_line (start 3.4036 -16.5354) (end 3.1496 -16.6624) (layer Cmts.User) (width 0))
  (fp_line (start 3.4036 -16.5354) (end 3.1496 -16.4084) (layer Cmts.User) (width 0))
  (fp_line (start 3.1496 -16.6624) (end 3.1496 -16.4084) (layer Cmts.User) (width 0))
  (fp_line (start 3.4036 -13.9954) (end 6.4262 -13.9954) (layer Cmts.User) (width 0))
  (fp_line (start 3.4036 -3.5052) (end 6.4262 -3.5052) (layer Cmts.User) (width 0))
  (fp_line (start 6.0452 -13.9954) (end 6.0452 -3.5052) (layer Cmts.User) (width 0))
  (fp_line (start 6.0452 -13.9954) (end 5.9182 -13.7414) (layer Cmts.User) (width 0))
  (fp_line (start 6.0452 -13.9954) (end 6.1722 -13.7414) (layer Cmts.User) (width 0))
  (fp_line (start 5.9182 -13.7414) (end 6.1722 -13.7414) (layer Cmts.User) (width 0))
  (fp_line (start 6.0452 -3.5052) (end 5.9182 -3.7592) (layer Cmts.User) (width 0))
  (fp_line (start 6.0452 -3.5052) (end 6.1722 -3.7592) (layer Cmts.User) (width 0))
  (fp_line (start 5.9182 -3.7592) (end 6.1722 -3.7592) (layer Cmts.User) (width 0))
  (fp_line (start 3.5052 -3.5052) (end 6.4262 -3.5052) (layer Cmts.User) (width 0))
  (fp_line (start 3.5052 3.5052) (end 6.4262 3.5052) (layer Cmts.User) (width 0))
  (fp_line (start 6.0452 -3.5052) (end 6.0452 3.5052) (layer Cmts.User) (width 0))
  (fp_line (start 6.0452 -3.5052) (end 5.9182 -3.2512) (layer Cmts.User) (width 0))
  (fp_line (start 6.0452 -3.5052) (end 6.1722 -3.2512) (layer Cmts.User) (width 0))
  (fp_line (start 5.9182 -3.2512) (end 6.1722 -3.2512) (layer Cmts.User) (width 0))
  (fp_line (start 6.0452 3.5052) (end 5.9182 3.2512) (layer Cmts.User) (width 0))
  (fp_line (start 6.0452 3.5052) (end 6.1722 3.2512) (layer Cmts.User) (width 0))
  (fp_line (start 5.9182 3.2512) (end 6.1722 3.2512) (layer Cmts.User) (width 0))
  (fp_line (start -3.5052 3.5052) (end -3.5052 8.9662) (layer Cmts.User) (width 0))
  (fp_line (start 3.5052 3.5052) (end 3.5052 8.9662) (layer Cmts.User) (width 0))
  (fp_line (start -3.5052 8.5852) (end 3.5052 8.5852) (layer Cmts.User) (width 0))
  (fp_line (start -3.5052 8.5852) (end -3.2512 8.4582) (layer Cmts.User) (width 0))
  (fp_line (start -3.5052 8.5852) (end -3.2512 8.7122) (layer Cmts.User) (width 0))
  (fp_line (start -3.2512 8.4582) (end -3.2512 8.7122) (layer Cmts.User) (width 0))
  (fp_line (start 3.5052 8.5852) (end 3.2512 8.4582) (layer Cmts.User) (width 0))
  (fp_line (start 3.5052 8.5852) (end 3.2512 8.7122) (layer Cmts.User) (width 0))
  (fp_line (start 3.2512 8.4582) (end 3.2512 8.7122) (layer Cmts.User) (width 0))
  (fp_line (start -3.5306 -3.3782) (end -3.20401 -3.3782) (layer F.SilkS) (width .12))
  (fp_line (start 3.5306 -3.3782) (end 3.5306 -14.1224) (layer F.SilkS) (width .12))
  (fp_line (start 3.5306 -14.1224) (end -3.5306 -14.1224) (layer F.SilkS) (width .12))
  (fp_line (start -3.5306 -14.1224) (end -3.5306 -3.3782) (layer F.SilkS) (width .12))
  (fp_line (start -3.4036 -3.5052) (end 3.4036 -3.5052) (layer F.Fab) (width .1))
  (fp_line (start 3.4036 -3.5052) (end 3.4036 -13.9954) (layer F.Fab) (width .1))
  (fp_line (start 3.4036 -13.9954) (end -3.4036 -13.9954) (layer F.Fab) (width .1))
  (fp_line (start -3.4036 -13.9954) (end -3.4036 -3.5052) (layer F.Fab) (width .1))
  (fp_line (start -3.6322 3.6322) (end 3.6322 3.6322) (layer F.SilkS) (width .12))
  (fp_line (start 3.6322 3.6322) (end 3.6322 -3.6322) (layer F.SilkS) (width .12))
  (fp_line (start 3.6322 -3.6322) (end -3.6322 -3.6322) (layer F.SilkS) (width .12))
  (fp_line (start -3.6322 -3.6322) (end -3.6322 3.6322) (layer F.SilkS) (width .12))
  (fp_line (start -3.5052 3.5052) (end 3.5052 3.5052) (layer F.Fab) (width .1))
  (fp_line (start 3.5052 3.5052) (end 3.5052 -3.5052) (layer F.Fab) (width .1))
  (fp_line (start 3.5052 -3.5052) (end -3.5052 -3.5052) (layer F.Fab) (width .1))
  (fp_line (start -3.5052 -3.5052) (end -3.5052 3.5052) (layer F.Fab) (width .1))
  (fp_line (start -1.87599 -3.3782) (end 1.87599 -3.3782) (layer F.SilkS) (width .12))
  (fp_line (start 3.20401 -3.3782) (end 3.5306 -3.3782) (layer F.SilkS) (width .12))
  (fp_line (start -4.99364 4.035669) (end -4.99364 -14.525868) (layer F.CrtYd) (width .05))
  (fp_line (start -4.99364 -14.525868) (end 4.99364 -14.525868) (layer F.CrtYd) (width .05))
  (fp_line (start 4.99364 -14.525868) (end 4.99364 4.035669) (layer F.CrtYd) (width .05))
  (fp_line (start 4.99364 4.035669) (end -4.99364 4.035669) (layer F.CrtYd) (width .05))
  (fp_circle (center 3.1242 0) (end 3.1242 0) (layer F.Fab) (width .1))
  (pad 1 thru_hole circle (at 0 0) (size 1.4732 1.4732) (drill .9652) (layers *.Cu *.Mask))
  (pad 2 thru_hole circle (at -2.54 -2.54) (size 1.4732 1.4732) (drill .9652) (layers *.Cu *.Mask))
  (pad 3 thru_hole circle (at -2.54 2.54) (size 1.4732 1.4732) (drill .9652) (layers *.Cu *.Mask))
  (pad 4 thru_hole circle (at 2.54 2.54) (size 1.4732 1.4732) (drill .9652) (layers *.Cu *.Mask))
  (pad 5 thru_hole circle (at 2.54 -2.54) (size 1.4732 1.4732) (drill .9652) (layers *.Cu *.Mask))
)
